<svg width="35" height="35" viewBox="0 0 35 35" fill="none" xmlns="http://www.w3.org/2000/svg">
<path d="M10 25L13.5416 21.4521L10 25ZM11.5789 16.7105C11.5789 18.4903 12.2859 20.1971 13.5444 21.4556C14.8029 22.7141 16.5097 23.4211 18.2895 23.4211C20.0692 23.4211 21.7761 22.7141 23.0345 21.4556C24.293 20.1971 25 18.4903 25 16.7105C25 14.9308 24.293 13.2239 23.0345 11.9655C21.7761 10.707 20.0692 10 18.2895 10C16.5097 10 14.8029 10.707 13.5444 11.9655C12.2859 13.2239 11.5789 14.9308 11.5789 16.7105V16.7105Z" stroke="white" stroke-width="1.5" stroke-linecap="round"/>
<path d="M18.2896 16.7105H21.0527M18.2896 13.9474V16.7105V13.9474ZM18.2896 16.7105V19.4737V16.7105ZM18.2896 16.7105H15.5264H18.2896Z" stroke="white" stroke-width="0.5" stroke-linecap="round"/>
<path d="M17.5 34C8.3873 34 1 26.6127 1 17.5H-1C-1 27.7173 7.28273 36 17.5 36V34ZM34 17.5C34 26.6127 26.6127 34 17.5 34V36C27.7173 36 36 27.7173 36 17.5H34ZM17.5 1C26.6127 1 34 8.3873 34 17.5H36C36 7.28273 27.7173 -1 17.5 -1V1ZM17.5 -1C7.28273 -1 -1 7.28273 -1 17.5H1C1 8.3873 8.3873 1 17.5 1V-1Z" fill="white"/>
</svg>
