<svg width="35" height="35" viewBox="0 0 35 35" fill="none" xmlns="http://www.w3.org/2000/svg">
<path d="M0 17.5C0 7.83502 7.83502 0 17.5 0C27.165 0 35 7.83502 35 17.5C35 27.165 27.165 35 17.5 35C7.83502 35 0 27.165 0 17.5Z" fill="white"/>
<path d="M19.2931 14.4433V10L24.1255 14.8324L28 18.7069L24.0567 21.9932L19.2931 25.9632V21.6154C10.93 20.9851 8 25.8246 8 25.8246C8 22.8094 8.24845 19.6802 10.619 17.3107C13.3745 14.5542 17.365 14.3591 19.2931 14.4433Z" fill="#06172B"/>
</svg>
