<svg width="35" height="35" viewBox="0 0 35 35" fill="none" xmlns="http://www.w3.org/2000/svg">
<path d="M0 17.5C0 7.83502 7.83502 0 17.5 0C27.165 0 35 7.83502 35 17.5C35 27.165 27.165 35 17.5 35C7.83502 35 0 27.165 0 17.5Z" fill="#06172B"/>
<path d="M12.2105 9V14.2632H11.1579C10.3204 14.2632 9.51715 14.5959 8.92492 15.1881C8.3327 15.7803 8 16.5835 8 17.4211V22.6842H12.2105V26.8947L23.7895 26.8947V22.6842H28V17.4211C28 15.6779 26.5863 14.2632 24.8421 14.2632H23.7895V9L12.2105 9ZM11.1579 18.4737C11.4371 18.4737 11.7048 18.3628 11.9022 18.1654C12.0996 17.968 12.2105 17.7002 12.2105 17.4211C12.2105 17.1419 12.0996 16.8741 11.9022 16.6767C11.7048 16.4793 11.4371 16.3684 11.1579 16.3684C10.8787 16.3684 10.611 16.4793 10.4136 16.6767C10.2162 16.8741 10.1053 17.1419 10.1053 17.4211C10.1053 17.7002 10.2162 17.968 10.4136 18.1654C10.611 18.3628 10.8787 18.4737 11.1579 18.4737ZM26.9474 17.4232V21.6337H23.7895V19.5284H12.2105V21.6337H9.05263V17.4232C9.05263 16.8648 9.27444 16.3293 9.66925 15.9345C10.0641 15.5397 10.5995 15.3179 11.1579 15.3179L24.8421 15.3179C25.4005 15.3179 25.9359 15.5397 26.3308 15.9345C26.7256 16.3293 26.9474 16.8648 26.9474 17.4232ZM13.2632 25.8442V20.5811H22.7368V25.8442L13.2632 25.8442ZM22.7368 10.0547V14.2653L13.2632 14.2653V10.0547L22.7368 10.0547Z" fill="white"/>
</svg>
